name stackOccurrence
normal_01 4
normal_02 1
normal_03 1
normal_04 2
normal_05 1
normal_06 1
normal_07 1
normal_08 1
normal_09 1
normal_10 1
normal_11 1
normal_12 1
normal_13 1
normal_14 1
normal_15 1
normal_16 1